[
  {"O": 123456, "Title": "Cleveland Municipal Court", "Lat":41.5021230, "Lon":-81.6967950, "A":"1200 Ontario Street", "C":"Cleveland", "S": "OH","Z":"44113", "WG": "M", "WT": "Secure the Property", "I": "Images/thumbnail-placeholder.png", "P": "$100 - 200","T": "https://blah.text.com"},
  {"O": 789101112, "Title": "Great Lakes Science Center", "Lat":41.5067520, "Lon":-81.6979400, "A":"601 Erieside Ave","C":"Cleveland", "S": "OH","Z":"44114", "WG": "I", "WT": "Inspect the Property", "I": "", "P": "$100 - 200","T": "https://blah.text.com"},
  {"O": 131415161718, "Title": "Quicken Loans Arena", "Lat":41.4965770, "Lon":-81.6880760, "A":"1 Center Ct","C":"Cleveland", "S": "OH","Z":"44115", "WG": "G", "WT": "Remove the Snow", "I": null, "P": "$100 - 200","T": "https://blah.text.com"},
  {"O": 123456, "Title": "Jacobs Pavilion at Nautica", "Lat":41.4963520, "Lon":-81.7029570, "A":"2014 Sycamore St","C":"Cleveland", "S": "OH","Z":"44113", "WG": "M", "WT": "Secure the Property", "I": "Images/thumbnail-placeholder.png", "P": "","T": "https://blah.text.com"},
  {"O": 789101112, "Title": "Akron Museum of Art", "Lat":41.084313, "Lon":-81.51536290000001, "A":"1 S High St","C":"Akron", "S": "OH","Z":"44308", "WG": "M", "WT": "Secure the Property", "I": "Images/thumbnail-placeholder.png", "P": null,"T": "https://blah.text.com"},
  {"O": 789101115, "Title": "COSI Columbus", "Lat":39.959651, "Lon":-83.006590, "A":"333 W Broad St","C":"Columbus", "S": "OH","Z":"43215", "WG": "G", "WT": "Secure the Property", "I": "Images/thumbnail-placeholder.png", "P": "$100 - 200","T": "https://blah.text.com"}
]
